*ERROR* 	v1.7.0.4	2017/06/06 - 17:03:05: Property Address->alias length (34) must be between 0 and 32 at line 915 in file classes/ObjectModel.php
*ERROR* 	v1.7.0.4	2017/06/06 - 17:03:26: Property Address->alias length (34) must be between 0 and 32 at line 915 in file classes/ObjectModel.php
*ERROR* 	v1.7.0.4	2017/06/06 - 17:04:09: Property Address->alias length (34) must be between 0 and 32 at line 915 in file classes/ObjectModel.php
